Examples
…
alpha
1
Transparency level of the glyphs.

Examples

Monthly temperature across Australia

The National Oceanica and Atmosphere Administration (NOAA) provides
weather data from stations all over Australia. The aus_temp
dataset contains climate variables such as precipitation, and
temperature from 29 different weather stations in the year 2020.

aus_temp
## # A tibble: 348 × 7
##    id           long   lat month  tmin  tmax     prcp
##    <chr>       <dbl> <dbl> <dbl> <dbl> <dbl>    <dbl>
##  1 ASN00001020  126. -14.1     1  253.  319  164.    
##  2 ASN00001020  126. -14.1     2  249.  323. 163.    
##  3 ASN00001020  126. -14.1     3  254.  333.  42     
##  4 ASN00001020  126. -14.1     4  244.  341.  21.6   
##  5 ASN00001020  126. -14.1     5  220.  332.   0     
##  6 ASN00001020  126. -14.1     6  202.  311.  11.2   
##  7 ASN00001020  126. -14.1     7  154.  292.   0     
##  8 ASN00001020  126. -14.1     8  186.  326.   0.0690
##  9 ASN00001020  126. -14.1     9  228.  337.   2.73  
## 10 ASN00001020  126. -14.1    10  256.  341.  12     
## # ℹ 338 more rows
…
